[
    {
        "id": "646b5f7d57de5",
        "patient name": "Azam Mia",
        "test name": "Thyroid panel",
        "gender": "Male",
        "address": "Rupganj-1230, Narayanganj",
        "phone": "01712988806",
        "date": "Saturday, 20 May 2023 at 4 PM"
    },
    {
        "id": "646b6114cac53",
        "patient name": "Farhan Labib",
        "test name": "Blood",
        "gender": "Male",
        "address": "Ashulia, Dhaka",
        "phone": "01712988806",
        "date": "18 May 2023 at 4 PM"
    }
]